G04*
G04 #@! TF.GenerationSoftware,Altium Limited,Altium Designer,20.0.2 (26)*
G04*
G04 Layer_Physical_Order=2*
G04 Layer_Color=16711680*
%FSLAX44Y44*%
%MOMM*%
G71*
G01*
G75*
%ADD53C,5.0000*%
%ADD54C,1.7000*%
%ADD55R,1.7000X1.7000*%
G36*
X976630Y735330D02*
X975360Y734060D01*
X469900D01*
Y1059180D01*
X976630D01*
Y735330D01*
D02*
G37*
%LPC*%
G36*
X929640Y1057495D02*
Y1031240D01*
X955895D01*
X955655Y1034292D01*
X954643Y1038507D01*
X952984Y1042512D01*
X950719Y1046208D01*
X947904Y1049504D01*
X944608Y1052319D01*
X940912Y1054584D01*
X936907Y1056243D01*
X932691Y1057255D01*
X929640Y1057495D01*
D02*
G37*
G36*
X927100D02*
X924048Y1057255D01*
X919833Y1056243D01*
X915828Y1054584D01*
X912132Y1052319D01*
X908836Y1049504D01*
X906021Y1046208D01*
X903756Y1042512D01*
X902097Y1038507D01*
X901085Y1034292D01*
X900845Y1031240D01*
X927100D01*
Y1057495D01*
D02*
G37*
G36*
X515620Y1052415D02*
Y1026160D01*
X541875D01*
X541635Y1029212D01*
X540623Y1033427D01*
X538964Y1037432D01*
X536699Y1041128D01*
X533884Y1044424D01*
X530588Y1047239D01*
X526892Y1049504D01*
X522887Y1051163D01*
X518671Y1052175D01*
X515620Y1052415D01*
D02*
G37*
G36*
X513080D02*
X510028Y1052175D01*
X505813Y1051163D01*
X501808Y1049504D01*
X498112Y1047239D01*
X494816Y1044424D01*
X492001Y1041128D01*
X489736Y1037432D01*
X488077Y1033427D01*
X487065Y1029212D01*
X486825Y1026160D01*
X513080D01*
Y1052415D01*
D02*
G37*
G36*
X955895Y1028700D02*
X929640D01*
Y1002445D01*
X932691Y1002685D01*
X936907Y1003697D01*
X940912Y1005356D01*
X944608Y1007621D01*
X947904Y1010436D01*
X950719Y1013732D01*
X952984Y1017428D01*
X954643Y1021433D01*
X955655Y1025648D01*
X955895Y1028700D01*
D02*
G37*
G36*
X927100D02*
X900845D01*
X901085Y1025648D01*
X902097Y1021433D01*
X903756Y1017428D01*
X906021Y1013732D01*
X908836Y1010436D01*
X912132Y1007621D01*
X915828Y1005356D01*
X919833Y1003697D01*
X924048Y1002685D01*
X927100Y1002445D01*
Y1028700D01*
D02*
G37*
G36*
X541875Y1023620D02*
X515620D01*
Y997365D01*
X518671Y997605D01*
X522887Y998617D01*
X526892Y1000276D01*
X530588Y1002541D01*
X533884Y1005356D01*
X536699Y1008652D01*
X538964Y1012348D01*
X540623Y1016353D01*
X541635Y1020568D01*
X541875Y1023620D01*
D02*
G37*
G36*
X513080D02*
X486825D01*
X487065Y1020568D01*
X488077Y1016353D01*
X489736Y1012348D01*
X492001Y1008652D01*
X494816Y1005356D01*
X498112Y1002541D01*
X501808Y1000276D01*
X505813Y998617D01*
X510028Y997605D01*
X513080Y997365D01*
Y1023620D01*
D02*
G37*
G36*
X891540Y924098D02*
Y914400D01*
X901238D01*
X901026Y916012D01*
X899913Y918698D01*
X898144Y921004D01*
X895838Y922773D01*
X893152Y923886D01*
X891540Y924098D01*
D02*
G37*
G36*
X889000D02*
X887388Y923886D01*
X884702Y922773D01*
X882396Y921004D01*
X880627Y918698D01*
X879514Y916012D01*
X879302Y914400D01*
X889000D01*
Y924098D01*
D02*
G37*
G36*
X901238Y911860D02*
X891540D01*
Y902162D01*
X893152Y902374D01*
X895838Y903487D01*
X898144Y905256D01*
X899913Y907562D01*
X901026Y910248D01*
X901238Y911860D01*
D02*
G37*
G36*
X889000D02*
X879302D01*
X879514Y910248D01*
X880627Y907562D01*
X882396Y905256D01*
X884702Y903487D01*
X887388Y902374D01*
X889000Y902162D01*
Y911860D01*
D02*
G37*
G36*
X565150Y916645D02*
X562268Y916266D01*
X559582Y915153D01*
X557276Y913384D01*
X555507Y911078D01*
X554394Y908392D01*
X554015Y905510D01*
X554394Y902628D01*
X555507Y899942D01*
X557276Y897636D01*
X559582Y895867D01*
X562268Y894754D01*
X565150Y894375D01*
X568032Y894754D01*
X570718Y895867D01*
X573024Y897636D01*
X574793Y899942D01*
X575906Y902628D01*
X576285Y905510D01*
X575906Y908392D01*
X574793Y911078D01*
X573024Y913384D01*
X570718Y915153D01*
X568032Y916266D01*
X565150Y916645D01*
D02*
G37*
G36*
X576190Y891150D02*
X566420D01*
Y881380D01*
X576190D01*
Y891150D01*
D02*
G37*
G36*
X563880D02*
X554110D01*
Y881380D01*
X563880D01*
Y891150D01*
D02*
G37*
G36*
X901310Y898770D02*
X879230D01*
Y876690D01*
X901310D01*
Y898770D01*
D02*
G37*
G36*
X576190Y878840D02*
X566420D01*
Y869070D01*
X576190D01*
Y878840D01*
D02*
G37*
G36*
X563880D02*
X554110D01*
Y869070D01*
X563880D01*
Y878840D01*
D02*
G37*
G36*
X934720Y790795D02*
Y764540D01*
X960975D01*
X960735Y767591D01*
X959723Y771807D01*
X958064Y775812D01*
X955799Y779508D01*
X952984Y782804D01*
X949688Y785619D01*
X945992Y787884D01*
X941987Y789543D01*
X937772Y790555D01*
X934720Y790795D01*
D02*
G37*
G36*
X932180D02*
X929128Y790555D01*
X924913Y789543D01*
X920908Y787884D01*
X917212Y785619D01*
X913916Y782804D01*
X911101Y779508D01*
X908836Y775812D01*
X907177Y771807D01*
X906165Y767591D01*
X905925Y764540D01*
X932180D01*
Y790795D01*
D02*
G37*
G36*
X520700D02*
Y764540D01*
X546955D01*
X546715Y767591D01*
X545703Y771807D01*
X544044Y775812D01*
X541779Y779508D01*
X538964Y782804D01*
X535668Y785619D01*
X531972Y787884D01*
X527967Y789543D01*
X523751Y790555D01*
X520700Y790795D01*
D02*
G37*
G36*
X518160D02*
X515108Y790555D01*
X510893Y789543D01*
X506888Y787884D01*
X503192Y785619D01*
X499896Y782804D01*
X497081Y779508D01*
X494816Y775812D01*
X493157Y771807D01*
X492145Y767591D01*
X491905Y764540D01*
X518160D01*
Y790795D01*
D02*
G37*
G36*
X960975Y762000D02*
X934720D01*
Y735745D01*
X937772Y735985D01*
X941987Y736997D01*
X945992Y738656D01*
X949688Y740921D01*
X952984Y743736D01*
X955799Y747032D01*
X958064Y750728D01*
X959723Y754733D01*
X960735Y758949D01*
X960975Y762000D01*
D02*
G37*
G36*
X932180D02*
X905925D01*
X906165Y758949D01*
X907177Y754733D01*
X908836Y750728D01*
X911101Y747032D01*
X913916Y743736D01*
X917212Y740921D01*
X920908Y738656D01*
X924913Y736997D01*
X929128Y735985D01*
X932180Y735745D01*
Y762000D01*
D02*
G37*
G36*
X546955D02*
X520700D01*
Y735745D01*
X523751Y735985D01*
X527967Y736997D01*
X531972Y738656D01*
X535668Y740921D01*
X538964Y743736D01*
X541779Y747032D01*
X544044Y750728D01*
X545703Y754733D01*
X546715Y758949D01*
X546955Y762000D01*
D02*
G37*
G36*
X518160D02*
X491905D01*
X492145Y758949D01*
X493157Y754733D01*
X494816Y750728D01*
X497081Y747032D01*
X499896Y743736D01*
X503192Y740921D01*
X506888Y738656D01*
X510893Y736997D01*
X515108Y735985D01*
X518160Y735745D01*
Y762000D01*
D02*
G37*
%LPD*%
D53*
X933450Y763270D02*
D03*
X928370Y1029970D02*
D03*
X514350Y1024890D02*
D03*
X519430Y763270D02*
D03*
D54*
X890270Y913130D02*
D03*
X565150Y905510D02*
D03*
D55*
X890270Y887730D02*
D03*
X565150Y880110D02*
D03*
M02*
